{"beban" : [
    {
        "kode_struk" : "9",
        "nama_struk" : "BEBAN",
        "kode_kel" : "9.1",
        "nama_kel" : "BEBAN OPERASI",
        "kode_jenis" : "9.1.01",
        "nama_jenis" : "Beban Pegawai",
        "realisasi1" : 4500000,
        "realisasi2" : 0
    },{
        "kode_struk" : "9",
        "nama_struk" : "BEBAN",
        "kode_kel" : "9.1",
        "nama_kel" : "BEBAN OPERASI",
        "kode_jenis" : "9.1.02",
        "nama_jenis" : "Beban Barang dan Jasa",
        "realisasi1" : 1350000,
        "realisasi2" : 0
    },{
        "kode_struk" : "9",
        "nama_struk" : "BEBAN",
        "kode_kel" : "9.2",
        "nama_kel" : "BEBAN PENYUSUTAN DAN AMORTISASI",
        "kode_jenis" : "9.2.01",
        "nama_jenis" : "Beban Penyusutan Peralatan dan Mesin",
        "realisasi1" : 4500000,
        "realisasi2" : 0
    },{
        "kode_struk" : "9",
        "nama_struk" : "BEBAN",
        "kode_kel" : "9.2",
        "nama_kel" : "BEBAN PENYUSUTAN DAN AMORTISASI",
        "kode_jenis" : "9.2.02",
        "nama_jenis" : "Beban Penyusutan Gedung dan Bangunan",
        "realisasi1" : 1400000,
        "realisasi2" : 0
    },{
        "kode_struk" : "9",
        "nama_struk" : "BEBAN",
        "kode_kel" : "9.2",
        "nama_kel" : "BEBAN PENYUSUTAN DAN AMORTISASI",
        "kode_jenis" : "9.2.03",
        "nama_jenis" : "Beban Penyusutan Jalan, Irigasi dan Jaringan",
        "realisasi1" : 675000,
        "realisasi2" : 0
    },{
        "kode_struk" : "9",
        "nama_struk" : "BEBAN",
        "kode_kel" : "9.2",
        "nama_kel" : "BEBAN PENYUSUTAN DAN AMORTISASI",
        "kode_jenis" : "9.2.04",
        "nama_jenis" : "Beban Penyusutan Aset Tetap Lainnya",
        "realisasi1" : 775000,
        "realisasi2" : 0
    },{
        "kode_struk" : "9",
        "nama_struk" : "BEBAN",
        "kode_kel" : "9.2",
        "nama_kel" : "BEBAN PENYUSUTAN DAN AMORTISASI",
        "kode_jenis" : "9.2.05",
        "nama_jenis" : "Beban Penyusutan Aset Lainnya",
        "realisasi1" : 37000,
        "realisasi2" : 0
    },{
        "kode_struk" : "9",
        "nama_struk" : "BEBAN",
        "kode_kel" : "9.2",
        "nama_kel" : "BEBAN PENYUSUTAN DAN AMORTISASI",
        "kode_jenis" : "9.2.06",
        "nama_jenis" : "Beban Amortisasi Aset Tak Berwujud",
        "realisasi1" : 47500,
        "realisasi2" : 0
    }
]}